Chapter 2 Data Wrangling and Visualization | My Bookdown
…
visitation <- visitation %>% mutate(UnitCode = if_else(is.na(UnitCode), "Parkwide", UnitCode))

Think of the above if_else() operation as: “If the column UnitCode is NA, replace NA with”Parkwide“. Otherwise, preserve what is already in the UnitCode column.”

Now that we have a single data set containing all of the NPS recreational visitation data that we’ve pulled, let’s start exploring it! But first, let’s aggregate the monthly data into annual data using group_by() and summarize():

annual_visitation <- visitation %>%
  group_by(UnitCode, Year) %>% 
  # we only care about recreational visitors:
  summarize(RecVisitation = sum(RecreationVisitors))

annual_visitation

## # A tibble: 394 × 3
## # Groups:   UnitCode [9]
##    UnitCode  Year RecVisitation
##    <chr>    <int>         <int>
##  1 ACAD      1980       2779666
##  2 ACAD      1981       2997972
##  3 ACAD      1982       3572114
##  4 ACAD      1983       4124639
##  5 ACAD      1984       3734763
##  6 ACAD      1985       3745570
##  7 ACAD      1986       3929054
##  8 ACAD      1987       4288154
##  9 ACAD      1988       4502283
## 10 ACAD      1989       5440952
## # ℹ 384 more rows
…
